module gitlab.com/test_progect/mini_telegram_bot

go 1.14

require (
	github.com/Syfaro/telegram-bot-api v4.6.4+incompatible
	github.com/go-telegram-bot-api/telegram-bot-api v4.6.4+incompatible // indirect
	github.com/technoweenie/multipartstreamer v1.0.1 // indirect
)
